<svg xmlns="http://www.w3.org/2000/svg" width="24" height="24" fill="none" viewBox="0 0 24 24">
    <path fill="#000" fill-opacity=".88" d="M12 8.56a.5.5 0 0 1 1 0v3.367l2.83 1.633a.499.499 0 1 1-.5.866L12 12.504V8.56z"/>
    <path fill="#000" fill-opacity=".88" fill-rule="evenodd" d="M20 12.5a7.5 7.5 0 1 1-15 0 7.5 7.5 0 1 1 15 0zm-1 0a6.5 6.5 0 1 1-13 0 6.5 6.5 0 0 1 13 0z" clip-rule="evenodd"/>
</svg>
