<svg width="32" height="32" viewBox="0 0 32 32" fill="none" xmlns="http://www.w3.org/2000/svg">
<path d="M4.54045 21.4844C3.96256 19.3836 5.17223 17.2068 7.2613 16.5881L11.4564 15.3456C14.4218 14.4674 17.5781 14.4674 20.5435 15.3456L24.7386 16.5881C26.8277 17.2068 28.0374 19.3836 27.4595 21.4844L25.9254 27.061C25.4478 28.797 23.8692 30 22.0687 30H9.93127C8.13073 30 6.55211 28.797 6.07453 27.061L4.54045 21.4844Z" fill="black" fill-opacity="0.48"/>
<path d="M21.5 6.5C21.5 9.53757 19.0375 12 16 12C12.9624 12 10.5 9.53757 10.5 6.5C10.5 3.46243 12.9624 1 16 1C19.0375 1 21.5 3.46243 21.5 6.5Z" fill="black" fill-opacity="0.48"/>
</svg>
