<svg xmlns="http://www.w3.org/2000/svg" width="24" height="24" fill="none" viewBox="0 0 24 24">
    <path fill="#000" fill-opacity=".88" fill-rule="evenodd" d="M10.802 7.13c.441.388.698.727.698.727s.257-.34.698-.728C12.788 6.61 13.708 6 14.78 6 17.594 6 19 8.294 19 10.55c0 3.807-6.563 8.45-7.502 8.45C10.563 19 4 14.357 4 10.55 4 8.294 5.406 6 8.219 6c1.073 0 1.993.609 2.583 1.13zm-.097 1.334l-.006-.007a4.257 4.257 0 0 0-.182-.21 5.185 5.185 0 0 0-.576-.535C9.434 7.31 8.831 7 8.22 7c-1.105 0-1.877.438-2.392 1.064C5.293 8.714 5 9.617 5 10.55c0 .677.299 1.489.879 2.382.571.88 1.36 1.756 2.2 2.539.84.78 1.704 1.446 2.405 1.91.352.233.649.407.87.517.057.029.105.051.145.068.04-.017.088-.04.145-.068.222-.11.519-.284.87-.517a19.288 19.288 0 0 0 2.406-1.91c.841-.783 1.63-1.659 2.201-2.539.58-.893.879-1.705.879-2.382 0-.933-.293-1.836-.827-2.486C16.658 7.437 15.886 7 14.78 7c-.612 0-1.215.31-1.723.712a5.188 5.188 0 0 0-.757.745l-.006.006-.795 1.05-.795-1.05z" clip-rule="evenodd"/>
</svg>
