<svg width="60" height="23" viewBox="0 0 60 23" fill="none" xmlns="http://www.w3.org/2000/svg">
<rect y="-19" width="60" height="60" fill="url(#paint0_linear)"/>
<defs>
<linearGradient id="paint0_linear" x1="30" y1="-19" x2="0" y2="11" gradientUnits="userSpaceOnUse">
<stop stop-color="#F928C3"/>
<stop offset="0.5" stop-color="#F81A38"/>
<stop offset="1" stop-color="#F97722"/>
</linearGradient>
</defs>
</svg>
